Analytical Day
…
Residual standard error: 8.79 on 16068 degrees of freedom
Multiple R-squared:  0.01306,   Adjusted R-squared:  0.009681 
F-statistic: 3.866 on 55 and 16068 DF,  p-value: < 2.2e-16

# A tibble: 32 × 5
# Groups:   game_phase [1]
   game_phase      possessionTeam mean_yards sd_yards     n
   <chr>           <chr>               <dbl>    <dbl> <int>
 1 Late / Overtime CAR                  7.22    13.8    134
 2 Late / Overtime NO                   7.12    10.7    163
 3 Late / Overtime MIA                  6.65    11.2    133
 4 Late / Overtime KC                   6.04    11.4    137
 5 Late / Overtime ATL                  5.96     9.73   135
 6 Late / Overtime NYJ                  5.81     9.01   160
 7 Late / Overtime CLE                  5.64     8.57   149
 8 Late / Overtime GB                   5.55     8.27   161
 9 Late / Overtime IND                  5.51     8.38   171
10 Late / Overtime BAL                  5.47     7.55   136
# ℹ 22 more rows
…
1.3%
1.0%
3.8656
0.00e+00
115911.4
116349.6

Create table to see the raw data

# A tibble: 55 × 5
   offenseFormation coverage_group mean_yards sd_yards     n
   <chr>            <fct>               <dbl>    <dbl> <int>
 1 WILDCAT          Cover-2             14       23.3      3
 2 I_FORM           Quarters             7.01    11.2     98
 3 WILDCAT          Cover_1              6.67     8.28    12
 4 EMPTY            Cover_1              6.59    11.0    271
 5 EMPTY            Cover_3              6.59     9.95   368
 6 SHOTGUN          Other_Rare           6.44    12.2    282
 7 SHOTGUN          Cover_6              6.38     9.22   890
 8 EMPTY            Other_Rare           6.27    10.2     41
 9 SHOTGUN          Cover-2              6.26     8.99  1192
10 PISTOL           Cover-2              6.08     6.61    37
# ℹ 45 more rows
…
